^E:\MAIN\공개SW개발자대회\0_CODE\TIGHTVNC-2.7.10\TVNSERVER-APP\ADDITIONALACTIONAPPLICATION.CPP|E:\MAIN\공개SW개발자대회\0_CODE\TIGHTVNC-2.7.10\TVNSERVER-APP\AUTHTRACKER.CPP|E:\MAIN\공개SW개발자대회\0_CODE\TIGHTVNC-2.7.10\TVNSERVER-APP\CONNECTTOTCPDISPATCHERTHREAD.CPP|E:\MAIN\공개SW개발자대회\0_CODE\TIGHTVNC-2.7.10\TVNSERVER-APP\CONTROLAPPAUTHENTICATOR.CPP|E:\MAIN\공개SW개발자대회\0_CODE\TIGHTVNC-2.7.10\TVNSERVER-APP\CONTROLCLIENT.CPP|E:\MAIN\공개SW개발자대회\0_CODE\TIGHTVNC-2.7.10\TVNSERVER-APP\CONTROLSERVER.CPP|E:\MAIN\공개SW개발자대회\0_CODE\TIGHTVNC-2.7.10\TVNSERVER-APP\CRASHHOOK.CPP|E:\MAIN\공개SW개발자대회\0_CODE\TIGHTVNC-2.7.10\TVNSERVER-APP\DESKTOPSERVERAPPLICATION.CPP|E:\MAIN\공개SW개발자대회\0_CODE\TIGHTVNC-2.7.10\TVNSERVER-APP\DESKTOPSERVERCOMMANDLINE.CPP|E:\MAIN\공개SW개발자대회\0_CODE\TIGHTVNC-2.7.10\TVNSERVER-APP\EXTRARFBSERVERS.CPP|E:\MAIN\공개SW개발자대회\0_CODE\TIGHTVNC-2.7.10\TVNSERVER-APP\NAMINGDEFS.CPP|E:\MAIN\공개SW개발자대회\0_CODE\TIGHTVNC-2.7.10\TVNSERVER-APP\OUTGOINGRFBCONNECTIONTHREAD.CPP|E:\MAIN\공개SW개발자대회\0_CODE\TIGHTVNC-2.7.10\TVNSERVER-APP\QUERYCONNECTIONAPPLICATION.CPP|E:\MAIN\공개SW개발자대회\0_CODE\TIGHTVNC-2.7.10\TVNSERVER-APP\QUERYCONNECTIONCOMMANDLINE.CPP|E:\MAIN\공개SW개발자대회\0_CODE\TIGHTVNC-2.7.10\TVNSERVER-APP\QUERYCONNECTIONDIALOG.CPP|E:\MAIN\공개SW개발자대회\0_CODE\TIGHTVNC-2.7.10\TVNSERVER-APP\RFBCLIENTMANAGER.CPP|E:\MAIN\공개SW개발자대회\0_CODE\TIGHTVNC-2.7.10\TVNSERVER-APP\RFBCLIENTMANAGEREVENTLISTENER.CPP|E:\MAIN\공개SW개발자대회\0_CODE\TIGHTVNC-2.7.10\TVNSERVER-APP\RFBSERVER.CPP|E:\MAIN\공개SW개발자대회\0_CODE\TIGHTVNC-2.7.10\TVNSERVER-APP\SERVERCOMMANDLINE.CPP|E:\MAIN\공개SW개발자대회\0_CODE\TIGHTVNC-2.7.10\TVNSERVER-APP\SERVICECONTROLAPPLICATION.CPP|E:\MAIN\공개SW개발자대회\0_CODE\TIGHTVNC-2.7.10\TVNSERVER-APP\SERVICECONTROLCOMMANDLINE.CPP|E:\MAIN\공개SW개발자대회\0_CODE\TIGHTVNC-2.7.10\TVNSERVER-APP\SESSIONCHANGESWATCHER.CPP|E:\MAIN\공개SW개발자대회\0_CODE\TIGHTVNC-2.7.10\TVNSERVER-APP\TVNSERVER.CPP|E:\MAIN\공개SW개발자대회\0_CODE\TIGHTVNC-2.7.10\TVNSERVER-APP\TVNSERVERAPPLICATION.CPP|E:\MAIN\공개SW개발자대회\0_CODE\TIGHTVNC-2.7.10\TVNSERVER-APP\TVNSERVERHELP.CPP|E:\MAIN\공개SW개발자대회\0_CODE\TIGHTVNC-2.7.10\TVNSERVER-APP\TVNSERVERLISTENER.CPP|E:\MAIN\공개SW개발자대회\0_CODE\TIGHTVNC-2.7.10\TVNSERVER-APP\TVNSERVICE.CPP|E:\MAIN\공개SW개발자대회\0_CODE\TIGHTVNC-2.7.10\TVNSERVER-APP\WINEVENTLOGWRITER.CPP|E:\MAIN\공개SW개발자대회\0_CODE\TIGHTVNC-2.7.10\TVNSERVER-APP\WSCONFIGRUNNER.CPP
E:\MAIN\공개SW개발자대회\0_CODE\TIGHTVNC-2.7.10\DEBUG\TVNSERVER-APP\VC120.PDB
E:\MAIN\공개SW개발자대회\0_CODE\TIGHTVNC-2.7.10\DEBUG\TVNSERVER-APP\VC120.IDB
E:\MAIN\공개SW개발자대회\0_CODE\TIGHTVNC-2.7.10\DEBUG\TVNSERVER-APP\EXTRARFBSERVERS.OBJ
E:\MAIN\공개SW개발자대회\0_CODE\TIGHTVNC-2.7.10\DEBUG\TVNSERVER-APP\NAMINGDEFS.OBJ
E:\MAIN\공개SW개발자대회\0_CODE\TIGHTVNC-2.7.10\DEBUG\TVNSERVER-APP\OUTGOINGRFBCONNECTIONTHREAD.OBJ
E:\MAIN\공개SW개발자대회\0_CODE\TIGHTVNC-2.7.10\DEBUG\TVNSERVER-APP\QUERYCONNECTIONAPPLICATION.OBJ
E:\MAIN\공개SW개발자대회\0_CODE\TIGHTVNC-2.7.10\DEBUG\TVNSERVER-APP\QUERYCONNECTIONCOMMANDLINE.OBJ
E:\MAIN\공개SW개발자대회\0_CODE\TIGHTVNC-2.7.10\DEBUG\TVNSERVER-APP\QUERYCONNECTIONDIALOG.OBJ
E:\MAIN\공개SW개발자대회\0_CODE\TIGHTVNC-2.7.10\DEBUG\TVNSERVER-APP\RFBCLIENTMANAGER.OBJ
E:\MAIN\공개SW개발자대회\0_CODE\TIGHTVNC-2.7.10\DEBUG\TVNSERVER-APP\RFBCLIENTMANAGEREVENTLISTENER.OBJ
E:\MAIN\공개SW개발자대회\0_CODE\TIGHTVNC-2.7.10\DEBUG\TVNSERVER-APP\RFBSERVER.OBJ
E:\MAIN\공개SW개발자대회\0_CODE\TIGHTVNC-2.7.10\DEBUG\TVNSERVER-APP\SERVERCOMMANDLINE.OBJ
E:\MAIN\공개SW개발자대회\0_CODE\TIGHTVNC-2.7.10\DEBUG\TVNSERVER-APP\SERVICECONTROLAPPLICATION.OBJ
E:\MAIN\공개SW개발자대회\0_CODE\TIGHTVNC-2.7.10\DEBUG\TVNSERVER-APP\SERVICECONTROLCOMMANDLINE.OBJ
E:\MAIN\공개SW개발자대회\0_CODE\TIGHTVNC-2.7.10\DEBUG\TVNSERVER-APP\SESSIONCHANGESWATCHER.OBJ
E:\MAIN\공개SW개발자대회\0_CODE\TIGHTVNC-2.7.10\DEBUG\TVNSERVER-APP\TVNSERVER.OBJ
E:\MAIN\공개SW개발자대회\0_CODE\TIGHTVNC-2.7.10\DEBUG\TVNSERVER-APP\TVNSERVERAPPLICATION.OBJ
E:\MAIN\공개SW개발자대회\0_CODE\TIGHTVNC-2.7.10\DEBUG\TVNSERVER-APP\TVNSERVERHELP.OBJ
E:\MAIN\공개SW개발자대회\0_CODE\TIGHTVNC-2.7.10\DEBUG\TVNSERVER-APP\TVNSERVERLISTENER.OBJ
E:\MAIN\공개SW개발자대회\0_CODE\TIGHTVNC-2.7.10\DEBUG\TVNSERVER-APP\TVNSERVICE.OBJ
E:\MAIN\공개SW개발자대회\0_CODE\TIGHTVNC-2.7.10\DEBUG\TVNSERVER-APP\WINEVENTLOGWRITER.OBJ
E:\MAIN\공개SW개발자대회\0_CODE\TIGHTVNC-2.7.10\DEBUG\TVNSERVER-APP\WSCONFIGRUNNER.OBJ
E:\MAIN\공개SW개발자대회\0_CODE\TIGHTVNC-2.7.10\DEBUG\TVNSERVER-APP\ADDITIONALACTIONAPPLICATION.OBJ
E:\MAIN\공개SW개발자대회\0_CODE\TIGHTVNC-2.7.10\DEBUG\TVNSERVER-APP\AUTHTRACKER.OBJ
E:\MAIN\공개SW개발자대회\0_CODE\TIGHTVNC-2.7.10\DEBUG\TVNSERVER-APP\CONNECTTOTCPDISPATCHERTHREAD.OBJ
E:\MAIN\공개SW개발자대회\0_CODE\TIGHTVNC-2.7.10\DEBUG\TVNSERVER-APP\CONTROLAPPAUTHENTICATOR.OBJ
E:\MAIN\공개SW개발자대회\0_CODE\TIGHTVNC-2.7.10\DEBUG\TVNSERVER-APP\CONTROLCLIENT.OBJ
E:\MAIN\공개SW개발자대회\0_CODE\TIGHTVNC-2.7.10\DEBUG\TVNSERVER-APP\CONTROLSERVER.OBJ
E:\MAIN\공개SW개발자대회\0_CODE\TIGHTVNC-2.7.10\DEBUG\TVNSERVER-APP\CRASHHOOK.OBJ
E:\MAIN\공개SW개발자대회\0_CODE\TIGHTVNC-2.7.10\DEBUG\TVNSERVER-APP\DESKTOPSERVERAPPLICATION.OBJ
E:\MAIN\공개SW개발자대회\0_CODE\TIGHTVNC-2.7.10\DEBUG\TVNSERVER-APP\DESKTOPSERVERCOMMANDLINE.OBJ
^E:\MAIN\공개SW개발자대회\0_CODE\TIGHTVNC-2.7.10\TVNSERVER-APP\ADDITIONALACTIONAPPLICATION.CPP
E:\MAIN\공개SW개발자대회\0_CODE\TIGHTVNC-2.7.10\DEBUG\TVNSERVER-APP\VC120.PDB
^E:\MAIN\공개SW개발자대회\0_CODE\TIGHTVNC-2.7.10\TVNSERVER-APP\AUTHTRACKER.CPP
E:\MAIN\공개SW개발자대회\0_CODE\TIGHTVNC-2.7.10\DEBUG\TVNSERVER-APP\VC120.PDB
^E:\MAIN\공개SW개발자대회\0_CODE\TIGHTVNC-2.7.10\TVNSERVER-APP\CONNECTTOTCPDISPATCHERTHREAD.CPP
E:\MAIN\공개SW개발자대회\0_CODE\TIGHTVNC-2.7.10\DEBUG\TVNSERVER-APP\VC120.PDB
^E:\MAIN\공개SW개발자대회\0_CODE\TIGHTVNC-2.7.10\TVNSERVER-APP\CONTROLAPPAUTHENTICATOR.CPP
E:\MAIN\공개SW개발자대회\0_CODE\TIGHTVNC-2.7.10\DEBUG\TVNSERVER-APP\VC120.PDB
^E:\MAIN\공개SW개발자대회\0_CODE\TIGHTVNC-2.7.10\TVNSERVER-APP\CONTROLCLIENT.CPP
E:\MAIN\공개SW개발자대회\0_CODE\TIGHTVNC-2.7.10\DEBUG\TVNSERVER-APP\VC120.PDB
^E:\MAIN\공개SW개발자대회\0_CODE\TIGHTVNC-2.7.10\TVNSERVER-APP\CONTROLSERVER.CPP
E:\MAIN\공개SW개발자대회\0_CODE\TIGHTVNC-2.7.10\DEBUG\TVNSERVER-APP\VC120.PDB
^E:\MAIN\공개SW개발자대회\0_CODE\TIGHTVNC-2.7.10\TVNSERVER-APP\CRASHHOOK.CPP
E:\MAIN\공개SW개발자대회\0_CODE\TIGHTVNC-2.7.10\DEBUG\TVNSERVER-APP\VC120.PDB
^E:\MAIN\공개SW개발자대회\0_CODE\TIGHTVNC-2.7.10\TVNSERVER-APP\DESKTOPSERVERAPPLICATION.CPP
E:\MAIN\공개SW개발자대회\0_CODE\TIGHTVNC-2.7.10\DEBUG\TVNSERVER-APP\VC120.PDB
^E:\MAIN\공개SW개발자대회\0_CODE\TIGHTVNC-2.7.10\TVNSERVER-APP\DESKTOPSERVERCOMMANDLINE.CPP
E:\MAIN\공개SW개발자대회\0_CODE\TIGHTVNC-2.7.10\DEBUG\TVNSERVER-APP\VC120.PDB
^E:\MAIN\공개SW개발자대회\0_CODE\TIGHTVNC-2.7.10\TVNSERVER-APP\EXTRARFBSERVERS.CPP
E:\MAIN\공개SW개발자대회\0_CODE\TIGHTVNC-2.7.10\DEBUG\TVNSERVER-APP\VC120.PDB
^E:\MAIN\공개SW개발자대회\0_CODE\TIGHTVNC-2.7.10\TVNSERVER-APP\NAMINGDEFS.CPP
E:\MAIN\공개SW개발자대회\0_CODE\TIGHTVNC-2.7.10\DEBUG\TVNSERVER-APP\VC120.PDB
^E:\MAIN\공개SW개발자대회\0_CODE\TIGHTVNC-2.7.10\TVNSERVER-APP\OUTGOINGRFBCONNECTIONTHREAD.CPP
E:\MAIN\공개SW개발자대회\0_CODE\TIGHTVNC-2.7.10\DEBUG\TVNSERVER-APP\VC120.PDB
^E:\MAIN\공개SW개발자대회\0_CODE\TIGHTVNC-2.7.10\TVNSERVER-APP\QUERYCONNECTIONAPPLICATION.CPP
E:\MAIN\공개SW개발자대회\0_CODE\TIGHTVNC-2.7.10\DEBUG\TVNSERVER-APP\VC120.PDB
^E:\MAIN\공개SW개발자대회\0_CODE\TIGHTVNC-2.7.10\TVNSERVER-APP\QUERYCONNECTIONCOMMANDLINE.CPP
E:\MAIN\공개SW개발자대회\0_CODE\TIGHTVNC-2.7.10\DEBUG\TVNSERVER-APP\VC120.PDB
^E:\MAIN\공개SW개발자대회\0_CODE\TIGHTVNC-2.7.10\TVNSERVER-APP\QUERYCONNECTIONDIALOG.CPP
E:\MAIN\공개SW개발자대회\0_CODE\TIGHTVNC-2.7.10\DEBUG\TVNSERVER-APP\VC120.PDB
^E:\MAIN\공개SW개발자대회\0_CODE\TIGHTVNC-2.7.10\TVNSERVER-APP\RFBCLIENTMANAGER.CPP
E:\MAIN\공개SW개발자대회\0_CODE\TIGHTVNC-2.7.10\DEBUG\TVNSERVER-APP\VC120.PDB
^E:\MAIN\공개SW개발자대회\0_CODE\TIGHTVNC-2.7.10\TVNSERVER-APP\RFBCLIENTMANAGEREVENTLISTENER.CPP
E:\MAIN\공개SW개발자대회\0_CODE\TIGHTVNC-2.7.10\DEBUG\TVNSERVER-APP\VC120.PDB
^E:\MAIN\공개SW개발자대회\0_CODE\TIGHTVNC-2.7.10\TVNSERVER-APP\RFBSERVER.CPP
E:\MAIN\공개SW개발자대회\0_CODE\TIGHTVNC-2.7.10\DEBUG\TVNSERVER-APP\VC120.PDB
^E:\MAIN\공개SW개발자대회\0_CODE\TIGHTVNC-2.7.10\TVNSERVER-APP\SERVERCOMMANDLINE.CPP
E:\MAIN\공개SW개발자대회\0_CODE\TIGHTVNC-2.7.10\DEBUG\TVNSERVER-APP\VC120.PDB
^E:\MAIN\공개SW개발자대회\0_CODE\TIGHTVNC-2.7.10\TVNSERVER-APP\SERVICECONTROLAPPLICATION.CPP
E:\MAIN\공개SW개발자대회\0_CODE\TIGHTVNC-2.7.10\DEBUG\TVNSERVER-APP\VC120.PDB
^E:\MAIN\공개SW개발자대회\0_CODE\TIGHTVNC-2.7.10\TVNSERVER-APP\SERVICECONTROLCOMMANDLINE.CPP
E:\MAIN\공개SW개발자대회\0_CODE\TIGHTVNC-2.7.10\DEBUG\TVNSERVER-APP\VC120.PDB
^E:\MAIN\공개SW개발자대회\0_CODE\TIGHTVNC-2.7.10\TVNSERVER-APP\SESSIONCHANGESWATCHER.CPP
E:\MAIN\공개SW개발자대회\0_CODE\TIGHTVNC-2.7.10\DEBUG\TVNSERVER-APP\VC120.PDB
^E:\MAIN\공개SW개발자대회\0_CODE\TIGHTVNC-2.7.10\TVNSERVER-APP\TVNSERVER.CPP
E:\MAIN\공개SW개발자대회\0_CODE\TIGHTVNC-2.7.10\DEBUG\TVNSERVER-APP\VC120.PDB
^E:\MAIN\공개SW개발자대회\0_CODE\TIGHTVNC-2.7.10\TVNSERVER-APP\TVNSERVERAPPLICATION.CPP
E:\MAIN\공개SW개발자대회\0_CODE\TIGHTVNC-2.7.10\DEBUG\TVNSERVER-APP\VC120.PDB
^E:\MAIN\공개SW개발자대회\0_CODE\TIGHTVNC-2.7.10\TVNSERVER-APP\TVNSERVERHELP.CPP
E:\MAIN\공개SW개발자대회\0_CODE\TIGHTVNC-2.7.10\DEBUG\TVNSERVER-APP\VC120.PDB
^E:\MAIN\공개SW개발자대회\0_CODE\TIGHTVNC-2.7.10\TVNSERVER-APP\TVNSERVERLISTENER.CPP
E:\MAIN\공개SW개발자대회\0_CODE\TIGHTVNC-2.7.10\DEBUG\TVNSERVER-APP\VC120.PDB
^E:\MAIN\공개SW개발자대회\0_CODE\TIGHTVNC-2.7.10\TVNSERVER-APP\TVNSERVICE.CPP
E:\MAIN\공개SW개발자대회\0_CODE\TIGHTVNC-2.7.10\DEBUG\TVNSERVER-APP\VC120.PDB
^E:\MAIN\공개SW개발자대회\0_CODE\TIGHTVNC-2.7.10\TVNSERVER-APP\WINEVENTLOGWRITER.CPP
E:\MAIN\공개SW개발자대회\0_CODE\TIGHTVNC-2.7.10\DEBUG\TVNSERVER-APP\VC120.PDB
^E:\MAIN\공개SW개발자대회\0_CODE\TIGHTVNC-2.7.10\TVNSERVER-APP\WSCONFIGRUNNER.CPP
E:\MAIN\공개SW개발자대회\0_CODE\TIGHTVNC-2.7.10\DEBUG\TVNSERVER-APP\VC120.PDB
